ISSS608-VAA -
…
A Glimpse into the Code

MC2_combined <- tbl_graph(nodes = MC2_nodes_extracted,
                       edges = MC2_Edges_Aggregated,
                       directed = TRUE)

A Glimpse into the Code

MC2_combined

# A tbl_graph: 11888 nodes and 90919 edges
#
# A directed multigraph with 148 components
#
# A tibble: 11,888 × 1
  id                                          
  <chr>                                       
1 " Direct Herring Company Transit"           
2 " Direct LLC Marine biology"                
3 " Direct Limited Liability Company Shipping"
4 " Direct S.A. de C.V."                      
5 " Direct Shark Oyj Marine sanctuary"        
6 "-15"                                       
# ℹ 11,882 more rows
#
# A tibble: 90,919 × 5
   from    to hscode  Year weights
  <int> <int>  <int> <dbl>   <int>
1     1  7899 307590  2029       2
2     1  7899 307590  2030       3
3     1   140 307590  2030       2
# ℹ 90,916 more rows
…
160300-160599
230100, 253099
300000-390000

A Glimpse into the Code

Graph2028_1

# A tbl_graph: 1507 nodes and 2396 edges
#
# A directed acyclic multigraph with 112 components
#
# A tibble: 1,507 × 1
  id                         
  <chr>                      
1 1 Ltd. Liability Co        
2 1 Ltd. Liability Co Cargo  
3 2 Limited Liability Company
4 3 Seabass Sp Logistics     
5 4 GmbH & Co. KG Logistics  
6 4 S.A. de C.V. Coral Reef  
# ℹ 1,501 more rows
#
# A tibble: 2,396 × 5
   from    to hscode  Year weights
  <int> <int>  <int> <dbl>   <int>
1     1   930 160510  2028       4
2     2   931 160510  2028       2
3     2   932 160521  2028       4
# ℹ 2,393 more rows

The dataframe ‘Graph2028_1’ has 1507 nodes and 2396 edges. It is a directed graph with 112 components.

A Glimpse into the Code

Graph2028_2

# A tbl_graph: 309 nodes and 274 edges
#
# A directed acyclic multigraph with 58 components
#
# A tibble: 309 × 1
  id                                                
  <chr>                                             
1 Adriatic Squid Sagl -                             
2 Agua Limited Liability Company Transit            
3 Ancla Azul Limited Liability Company              
4 Ancla del Este SE                                 
5 Andhra Pradesh   Limited Liability Company Tilapia
6 Aqua Ventures Marine life ОАО Export              
# ℹ 303 more rows
#
# A tibble: 274 × 5
   from    to hscode  Year weights
  <int> <int>  <int> <dbl>   <int>
1     1   137 250700  2028       2
2     2   138 230910  2028       2
3     3   139 230120  2028       3
# ℹ 271 more rows

The dataframe ‘Graph2028_2’ has 309 nodes and 274 edges. It is a directed graph with 58 components.

A Glimpse into the Code

Graph2028_3

# A tbl_graph: 4081 nodes and 9908 edges
#
# A directed acyclic multigraph with 166 components
#
# A tibble: 4,081 × 1
  id                                  
  <chr>                               
1 " Direct Herring Company Transit"   
2 " Direct S.A. de C.V."              
3 " Direct Shark Oyj Marine sanctuary"
4 "-59"                               
5 "1 AS Marine sanctuary"             
6 "1 Ltd. Liability Co Cargo"         
# ℹ 4,075 more rows
#
# A tibble: 9,908 × 5
   from    to hscode  Year weights
  <int> <int>  <int> <dbl>   <int>
1     1  2593 304710  2028       2
2     1  2593 306170  2028       5
3     1  2594 306170  2028       3
# ℹ 9,905 more rows
The dataframe ‘Graph2028_1’ has 4081 nodes and 9908 edges. It is a directed graph with 166 components.

160300-160599
230100, 253099
300000-390000

A Glimpse into the Code

Graph2029_1

# A tbl_graph: 1617 nodes and 2691 edges
#
# A directed multigraph with 117 components
#
# A tibble: 1,617 × 1
  id                                          
  <chr>                                       
1 " Direct Limited Liability Company Shipping"
2 " Direct Shark Oyj Marine sanctuary"        
3 "-54"                                       
4 "2 Ltd. Liability Co"                       
5 "3 Logistics Tom yum"                       
6 "4 GmbH & Co. KG Logistics"                 
# ℹ 1,611 more rows
#
# A tibble: 2,691 × 5
   from    to hscode  Year weights
  <int> <int>  <int> <dbl>   <int>
1     1   927 160414  2029       2
2     2    62 160414  2029       2
3     2   979 160414  2029       6
# ℹ 2,688 more rows

A Glimpse into the Code

Graph2029_2

# A tbl_graph: 317 nodes and 315 edges
#
# A directed acyclic multigraph with 50 components
#
# A tibble: 317 × 1
  id                                                  
  <chr>                                               
1 " Direct Shark Oyj Marine sanctuary"                
2 "5 Seagull A/S Marine ecology"                      
3 "Amerigo S.A. de C.V."                              
4 "Ancla Azul Limited Liability Company"              
5 "Ancla del Este SE"                                 
6 "Andhra Pradesh   Limited Liability Company Tilapia"
# ℹ 311 more rows
#
# A tibble: 315 × 5
   from    to hscode  Year weights
  <int> <int>  <int> <dbl>   <int>
1     1   142 230910  2029       2
2     2    26 230400  2029       3
3     2    26 230990  2029       2
# ℹ 312 more rows

A Glimpse into the Code

Graph2029_3

# A tbl_graph: 4098 nodes and 10373 edges
#
# A directed acyclic multigraph with 139 components
#
# A tibble: 4,098 × 1
  id                               
  <chr>                            
1 " Direct Herring Company Transit"
2 "-15"                            
3 "-46"                            
4 "-49"                            
5 "1 AS Marine sanctuary"          
6 "1 Ltd. Liability Co Cargo"      
# ℹ 4,092 more rows
#
# A tibble: 10,373 × 5
   from    to hscode  Year weights
  <int> <int>  <int> <dbl>   <int>
1     1  2582 307590  2029       2
2     1  2583 306170  2029       2
3     1  2584 307590  2029       2
# ℹ 10,370 more rows

160300-160599
230100, 253099
300000-390000

A Glimpse into the Code

Graph2030_1

# A tbl_graph: 1558 nodes and 2566 edges
#
# A directed acyclic multigraph with 97 components
#
# A tibble: 1,558 × 1
  id                                          
  <chr>                                       
1 " Direct Limited Liability Company Shipping"
2 "1 Limited Liability Company Transport"     
3 "1 Oyj Marine conservation"                 
4 "3 Logistics Tom yum"                       
5 "4 Limited Liability Company Marine ecology"
6 "4 S.A. de C.V. Coral Reef"                 
# ℹ 1,552 more rows
#
# A tibble: 2,566 × 5
   from    to hscode  Year weights
  <int> <int>  <int> <dbl>   <int>
1     1   974 160414  2030       3
2     2   792 160414  2030      12
3     2   975 160414  2030       2
# ℹ 2,563 more rows

A Glimpse into the Code

Graph2030_2

# A tbl_graph: 364 nodes and 348 edges
#
# A directed acyclic multigraph with 69 components
#
# A tibble: 364 × 1
  id                                        
  <chr>                                     
1 1 Ltd. Liability Co                       
2 4 Limited Liability Company Marine ecology
3 5 Seagull A/S Marine ecology              
4 Amerigo S.A. de C.V.                      
5 Ancla Azul Limited Liability Company      
6 Ancla Marina AG Marine conservation       
# ℹ 358 more rows
#
# A tibble: 348 × 5
   from    to hscode  Year weights
  <int> <int>  <int> <dbl>   <int>
1     1   165 252321  2030       2
2     2   166 250100  2030       2
3     3    34 230400  2030       6
# ℹ 345 more rows

A Glimpse into the Code

Graph2030_3

# A tbl_graph: 4143 nodes and 10109 edges
#
# A directed multigraph with 137 components
#
# A tibble: 4,143 × 1
  id                                          
  <chr>                                       
1 " Direct Herring Company Transit"           
2 " Direct Limited Liability Company Shipping"
3 " Direct S.A. de C.V."                      
4 "1 AS Marine sanctuary"                     
5 "1 Ltd. Liability Co Cargo"                 
6 "2 Limited Liability Company"               
# ℹ 4,137 more rows
#
# A tibble: 10,109 × 5
   from    to hscode  Year weights
  <int> <int>  <int> <dbl>   <int>
1     1  2604 307590  2030       3
2     1  2605 307590  2030       2
3     1   747 306170  2030       2
# ℹ 10,106 more rows

160300-160599
230100, 253099
300000-390000

A Glimpse into the Code

Graph2031_1

# A tbl_graph: 1536 nodes and 2498 edges
#
# A directed acyclic multigraph with 94 components
#
# A tibble: 1,536 × 1
  id                                   
  <chr>                                
1 1 Limited Liability Company Transport
2 2 Ltd. Liability Co                  
3 4 S.A. de C.V.                       
4 4 S.A. de C.V. Coral Reef            
5 6 Chart Ges.m.b.H. Export            
6 9 Marine biology Ltd Family          
# ℹ 1,530 more rows
#
# A tibble: 2,498 × 5
   from    to hscode  Year weights
  <int> <int>  <int> <dbl>   <int>
1     1   954 160414  2031       2
2     1   791 160414  2031      21
3     2   955 160510  2031       6
# ℹ 2,495 more rows

A Glimpse into the Code

Graph2031_2

# A tbl_graph: 330 nodes and 314 edges
#
# A directed acyclic multigraph with 64 components
#
# A tibble: 330 × 1
  id                                     
  <chr>                                  
1 "5 Seagull A/S Marine ecology"         
2 "Adriatic Catch Bonito Ltd Consultants"
3 "Adriatic Tuna Corp Navigation"        
4 "Adriatic Tuna LC Carriers"            
5 "Ancla Azul Limited Liability Company" 
6 "Ancla del Este Sp Fish "              
# ℹ 324 more rows
#
# A tibble: 314 × 5
   from    to hscode  Year weights
  <int> <int>  <int> <dbl>   <int>
1     1    28 230400  2031      30
2     1    28 230990  2031       3
3     2    32 230910  2031       2
# ℹ 311 more rows

A Glimpse into the Code

Graph2031_3

# A tbl_graph: 4027 nodes and 10033 edges
#
# A directed acyclic multigraph with 157 components
#
# A tibble: 4,027 × 1
  id                                          
  <chr>                                       
1 " Direct Herring Company Transit"           
2 " Direct Limited Liability Company Shipping"
3 " Direct S.A. de C.V."                      
4 " Direct Shark Oyj Marine sanctuary"        
5 "1 AS Marine sanctuary"                     
6 "1 Ltd. Liability Co Cargo"                 
# ℹ 4,021 more rows
#
# A tibble: 10,033 × 5
   from    to hscode  Year weights
  <int> <int>  <int> <dbl>   <int>
1     1  2613 307590  2031       2
2     1  2614 307590  2031       2
3     1   731 306170  2031      12
# ℹ 10,030 more rows

160300-160599
230100, 253099
300000-390000

A Glimpse into the Code

Graph2032_1

# A tbl_graph: 1610 nodes and 2628 edges
#
# A directed acyclic multigraph with 114 components
#
# A tibble: 1,610 × 1
  id                                     
  <chr>                                  
1 " Direct Herring Company Transit"      
2 "1 Limited Liability Company Transport"
3 "1 Ltd. Liability Co"                  
4 "2 S.A. de C.V."                       
5 "2 Wharf S.A. de C.V. Delivery"        
6 "3 Starfish CJSC Transport"            
# ℹ 1,604 more rows
#
# A tibble: 2,628 × 5
   from    to hscode  Year weights
  <int> <int>  <int> <dbl>   <int>
1     1  1018 160529  2032       4
2     2   832 160414  2032      16
3     3  1019 160414  2032       2
# ℹ 2,625 more rows

A Glimpse into the Code

Graph2032_2

# A tbl_graph: 323 nodes and 293 edges
#
# A directed acyclic multigraph with 64 components
#
# A tibble: 323 × 1
  id                                   
  <chr>                                
1 5 Seagull A/S Marine ecology         
2 Adriatic Catch Bonito Ltd Consultants
3 Adriatic Tuna Corp Navigation        
4 Amerigo S.A. de C.V.                 
5 Ancla Azul Limited Liability Company 
6 Arena del Mar AB                     
# ℹ 317 more rows
#
# A tibble: 293 × 5
   from    to hscode  Year weights
  <int> <int>  <int> <dbl>   <int>
1     1    26 230400  2032      83
2     1    26 230990  2032       3
3     2   151 230910  2032       3
# ℹ 290 more rows

A Glimpse into the Code

Graph2032_3

# A tbl_graph: 4026 nodes and 9870 edges
#
# A directed acyclic multigraph with 146 components
#
# A tibble: 4,026 × 1
  id                                          
  <chr>                                       
1 " Direct Herring Company Transit"           
2 " Direct Limited Liability Company Shipping"
3 " Direct S.A. de C.V."                      
4 "-15"                                       
5 "-28"                                       
6 "-41"                                       
# ℹ 4,020 more rows
#
# A tibble: 9,870 × 5
   from    to hscode  Year weights
  <int> <int>  <int> <dbl>   <int>
1     1  2605 306170  2032       2
2     2  2606 330430  2032       3
3     3  2607 330730  2032       2
# ℹ 9,867 more rows

160300-160599
230100, 253099
300000-390000

A Glimpse into the Code

Graph2033_1

# A tbl_graph: 1542 nodes and 2578 edges
#
# A directed acyclic multigraph with 102 components
#
# A tibble: 1,542 × 1
  id                                   
  <chr>                                
1 1 Limited Liability Company Transport
2 1 Ltd. Liability Co                  
3 2 Wharf S.A. de C.V. Delivery        
4 7 Ltd. Liability Co Express          
5 9 Limited Liability Company Brothers 
6 9 Marine biology Ltd Family          
# ℹ 1,536 more rows
#
# A tibble: 2,578 × 5
   from    to hscode  Year weights
  <int> <int>  <int> <dbl>   <int>
1     1   783 160414  2033      54
2     2   959 160414  2033       2
3     3   960 160414  2033       8
# ℹ 2,575 more rows

A Glimpse into the Code

Graph2033_2

# A tbl_graph: 308 nodes and 292 edges
#
# A directed acyclic multigraph with 66 components
#
# A tibble: 308 × 1
  id                                                  
  <chr>                                               
1 "5 Seagull A/S Marine ecology"                      
2 "Amerigo S.A. de C.V."                              
3 "Ancla Azul Limited Liability Company"              
4 "Ancla del Este Sp Fish "                           
5 "Andhra Pradesh   Limited Liability Company Tilapia"
6 "Angrapa Compass AB Solutions"                      
# ℹ 302 more rows
#
# A tibble: 292 × 5
   from    to hscode  Year weights
  <int> <int>  <int> <dbl>   <int>
1     1    25 230400  2033      10
2     2   146 252620  2033       2
3     2   147 230320  2033       7
# ℹ 289 more rows

A Glimpse into the Code

Graph2033_3

# A tbl_graph: 4035 nodes and 10497 edges
#
# A directed acyclic multigraph with 149 components
#
# A tibble: 4,035 × 1
  id                               
  <chr>                            
1 " Direct Herring Company Transit"
2 " Direct LLC Marine biology"     
3 " Direct S.A. de C.V."           
4 "-15"                            
5 "1 AS Marine sanctuary"          
6 "1 Ltd. Liability Co Cargo"      
# ℹ 4,029 more rows
#
# A tibble: 10,497 × 5
   from    to hscode  Year weights
  <int> <int>  <int> <dbl>   <int>
1     1  2585 306170  2033       2
2     2  1170 303630  2033       2
3     3  2586 330730  2033      10
# ℹ 10,494 more rows

160300-160599
230100, 253099
300000-390000

A Glimpse into the Code

Graph2034_1

# A tbl_graph: 1521 nodes and 2580 edges
#
# A directed acyclic multigraph with 107 components
#
# A tibble: 1,521 × 1
  id                                   
  <chr>                                
1 -214                                 
2 -4                                   
3 1 Limited Liability Company Transport
4 2 Wharf S.A. de C.V. Delivery        
5 7 Ltd. Liability Co Express          
6 9 Limited Liability Company Brothers 
# ℹ 1,515 more rows
#
# A tibble: 2,580 × 5
   from    to hscode  Year weights
  <int> <int>  <int> <dbl>   <int>
1     1   986 160419  2034       2
2     2   987 160510  2034       3
3     3   822 160414  2034      28
# ℹ 2,577 more rows

A Glimpse into the Code

Graph2034_2

# A tbl_graph: 335 nodes and 345 edges
#
# A directed acyclic multigraph with 48 components
#
# A tibble: 335 × 1
  id                                                
  <chr>                                             
1 8 Tidal Company Line                              
2 Ancla Azul Limited Liability Company              
3 Andhra Pradesh   Limited Liability Company Tilapia
4 Angrapa Compass AB Solutions                      
5 Angrapa Ltd. Liability Co Export                  
6 Aqua Anchor Sagl Marine sanctuary                 
# ℹ 329 more rows
#
# A tibble: 345 × 5
   from    to hscode  Year weights
  <int> <int>  <int> <dbl>   <int>
1     1   152 230990  2034       2
2     2   153 230990  2034       2
3     3   154 252520  2034       2
# ℹ 342 more rows

A Glimpse into the Code

Graph2034_3

# A tbl_graph: 4051 nodes and 10011 edges
#
# A directed acyclic multigraph with 176 components
#
# A tibble: 4,051 × 1
  id                                          
  <chr>                                       
1 " Direct Limited Liability Company Shipping"
2 " Direct S.A. de C.V."                      
3 "-1515"                                     
4 "1 AS Marine sanctuary"                     
5 "1 Limited Liability Company"               
6 "1 Ltd. Liability Co Cargo"                 
# ℹ 4,045 more rows
#
# A tibble: 10,011 × 5
   from    to hscode  Year weights
  <int> <int>  <int> <dbl>   <int>
1     1  2602 330499  2034       4
2     2  2513 330730  2034       3
3     3  2603 301110  2034       4
# ℹ 10,008 more rows

160300-160599
230100, 253099
300000-390000

A Glimpse into the Code

Graph_All1

# A tbl_graph: 10891 nodes and 17937 edges
#
# A directed multigraph with 6568 components
#
# A tibble: 10,891 × 1
  id                         
  <chr>                      
1 1 Ltd. Liability Co        
2 1 Ltd. Liability Co Cargo  
3 2 Limited Liability Company
4 3 Seabass Sp Logistics     
5 4 GmbH & Co. KG Logistics  
6 4 S.A. de C.V. Coral Reef  
# ℹ 10,885 more rows
#
# A tibble: 17,937 × 5
   from    to hscode  Year weights
  <int> <int>  <int> <dbl>   <int>
1     1   930 160510  2028       4
2     2   931 160510  2028       2
3     2   932 160521  2028       4
# ℹ 17,934 more rows

A Glimpse into the Code

Graph_All2

# A tbl_graph: 2286 nodes and 2181 edges
#
# A directed multigraph with 1378 components
#
# A tibble: 2,286 × 1
  id                                                
  <chr>                                             
1 Adriatic Squid Sagl -                             
2 Agua Limited Liability Company Transit            
3 Ancla Azul Limited Liability Company              
4 Ancla del Este SE                                 
5 Andhra Pradesh   Limited Liability Company Tilapia
6 Aqua Ventures Marine life ОАО Export              
# ℹ 2,280 more rows
#
# A tibble: 2,181 × 5
   from    to hscode  Year weights
  <int> <int>  <int> <dbl>   <int>
1     1   137 250700  2028       2
2     2   138 230910  2028       2
3     3   139 230120  2028       3
# ℹ 2,178 more rows

A Glimpse into the Code

Graph_All2

# A tbl_graph: 2286 nodes and 2181 edges
#
# A directed multigraph with 1378 components
#
# A tibble: 2,286 × 1
  id                                                
  <chr>                                             
1 Adriatic Squid Sagl -                             
2 Agua Limited Liability Company Transit            
3 Ancla Azul Limited Liability Company              
4 Ancla del Este SE                                 
5 Andhra Pradesh   Limited Liability Company Tilapia
6 Aqua Ventures Marine life ОАО Export              
# ℹ 2,280 more rows
#
# A tibble: 2,181 × 5
   from    to hscode  Year weights
  <int> <int>  <int> <dbl>   <int>
1     1   137 250700  2028       2
2     2   138 230910  2028       2
3     3   139 230120  2028       3
# ℹ 2,178 more rows
…
